-------------------------------------------------------------------------------
Test set: com.graphhopper.http.GraphHopperWebTest
-------------------------------------------------------------------------------
Tests run: 1, Failures: 0, Errors: 0, Skipped: 0, Time elapsed: 0.704 sec - in com.graphhopper.http.GraphHopperWebTest
