-------------------------------------------------------------------------------
Test set: com.graphhopper.routing.AStarBidirectionTest
-------------------------------------------------------------------------------
Tests run: 108, Failures: 0, Errors: 0, Skipped: 0, Time elapsed: 1.101 sec - in com.graphhopper.routing.AStarBidirectionTest
