-------------------------------------------------------------------------------
Test set: com.graphhopper.coll.CompressedArrayTest
-------------------------------------------------------------------------------
Tests run: 2, Failures: 0, Errors: 0, Skipped: 0, Time elapsed: 0.053 sec - in com.graphhopper.coll.CompressedArrayTest
