-------------------------------------------------------------------------------
Test set: com.graphhopper.util.HelperTest
-------------------------------------------------------------------------------
Tests run: 5, Failures: 0, Errors: 0, Skipped: 0, Time elapsed: 0.003 sec - in com.graphhopper.util.HelperTest
