-------------------------------------------------------------------------------
Test set: com.graphhopper.util.InstructionListTest
-------------------------------------------------------------------------------
Tests run: 10, Failures: 0, Errors: 0, Skipped: 0, Time elapsed: 0.238 sec - in com.graphhopper.util.InstructionListTest
