-------------------------------------------------------------------------------
Test set: com.graphhopper.geohash.SpatialKeyAlgoTest
-------------------------------------------------------------------------------
Tests run: 10, Failures: 0, Errors: 0, Skipped: 0, Time elapsed: 0.014 sec - in com.graphhopper.geohash.SpatialKeyAlgoTest
