-------------------------------------------------------------------------------
Test set: com.graphhopper.storage.EdgeTest
-------------------------------------------------------------------------------
Tests run: 1, Failures: 0, Errors: 0, Skipped: 0, Time elapsed: 0.002 sec - in com.graphhopper.storage.EdgeTest
