-------------------------------------------------------------------------------
Test set: com.graphhopper.routing.QueryGraphTest
-------------------------------------------------------------------------------
Tests run: 16, Failures: 0, Errors: 0, Skipped: 0, Time elapsed: 0.132 sec - in com.graphhopper.routing.QueryGraphTest
