-------------------------------------------------------------------------------
Test set: com.graphhopper.coll.IntIntBinHeapTest
-------------------------------------------------------------------------------
Tests run: 6, Failures: 0, Errors: 0, Skipped: 0, Time elapsed: 0.026 sec - in com.graphhopper.coll.IntIntBinHeapTest
