-------------------------------------------------------------------------------
Test set: com.graphhopper.coll.OSMIDSegmentedMapTest
-------------------------------------------------------------------------------
Tests run: 3, Failures: 0, Errors: 0, Skipped: 0, Time elapsed: 0.041 sec - in com.graphhopper.coll.OSMIDSegmentedMapTest
