-------------------------------------------------------------------------------
Test set: com.graphhopper.routing.util.FootFlagEncoderTest
-------------------------------------------------------------------------------
Tests run: 12, Failures: 0, Errors: 0, Skipped: 0, Time elapsed: 0.032 sec - in com.graphhopper.routing.util.FootFlagEncoderTest
