-------------------------------------------------------------------------------
Test set: com.graphhopper.storage.LevelGraphStorageTest
-------------------------------------------------------------------------------
Tests run: 52, Failures: 0, Errors: 0, Skipped: 0, Time elapsed: 0.227 sec - in com.graphhopper.storage.LevelGraphStorageTest
