-------------------------------------------------------------------------------
Test set: com.graphhopper.storage.MMapDataAccessTest
-------------------------------------------------------------------------------
Tests run: 16, Failures: 0, Errors: 0, Skipped: 0, Time elapsed: 0.709 sec - in com.graphhopper.storage.MMapDataAccessTest
