-------------------------------------------------------------------------------
Test set: com.graphhopper.storage.index.LocationIndexTreeTest
-------------------------------------------------------------------------------
Tests run: 17, Failures: 0, Errors: 0, Skipped: 0, Time elapsed: 0.334 sec - in com.graphhopper.storage.index.LocationIndexTreeTest
