<?xml version="1.0" encoding="UTF-8"?>
<testsuite name="com.graphhopper.routing.AStarTest" time="0.833" tests="104" errors="0" skipped="0" failures="0">
  <properties>
    <property name="java.runtime.name" value="Java(TM) SE Runtime Environment"/>
    <property name="sun.boot.library.path" value="/Library/Java/JavaVirtualMachines/jdk1.7.0_79.jdk/Contents/Home/jre/lib"/>
    <property name="java.vm.version" value="24.79-b02"/>
    <property name="user.country.format" value="DE"/>
    <property name="gopherProxySet" value="false"/>
    <property name="java.vm.vendor" value="Oracle Corporation"/>
    <property name="java.vendor.url" value="http://java.oracle.com/"/>
    <property name="path.separator" value=":"/>
    <property name="guice.disable.misplaced.annotation.check" value="true"/>
    <property name="java.vm.name" value="Java HotSpot(TM) 64-Bit Server VM"/>
    <property name="file.encoding.pkg" value="sun.io"/>
    <property name="user.country" value="US"/>
    <property name="sun.java.launcher" value="SUN_STANDARD"/>
    <property name="sun.os.patch.level" value="unknown"/>
    <property name="java.vm.specification.name" value="Java Virtual Machine Specification"/>
    <property name="user.dir" value="/Users/Hazem/Documents/graphhopper"/>
    <property name="java.runtime.version" value="1.7.0_79-b15"/>
    <property name="java.awt.graphicsenv" value="sun.awt.CGraphicsEnvironment"/>
    <property name="java.endorsed.dirs" value="/Library/Java/JavaVirtualMachines/jdk1.7.0_79.jdk/Contents/Home/jre/lib/endorsed"/>
    <property name="os.arch" value="x86_64"/>
    <property name="java.io.tmpdir" value="/var/folders/mk/t3t1bpsd0t92btw5qvhsp43h0000gn/T/"/>
    <property name="line.separator" value="&#10;"/>
    <property name="java.vm.specification.vendor" value="Oracle Corporation"/>
    <property name="os.name" value="Mac OS X"/>
    <property name="maven.ext.class.path" value="/Applications/NetBeans/NetBeans 8.0.2.app/Contents/Resources/NetBeans/java/maven-nblib/netbeans-eventspy.jar"/>
    <property name="classworlds.conf" value="/Applications/NetBeans/NetBeans 8.0.2.app/Contents/Resources/NetBeans/java/maven/bin/m2.conf"/>
    <property name="sun.jnu.encoding" value="UTF-8"/>
    <property name="java.library.path" value="/Applications/NetBeans/NetBeans 8.0.2.app/Contents/Resources/NetBeans/webcommon/bin::/Users/Hazem/Library/Java/Extensions:/Library/Java/Extensions:/Network/Library/Java/Extensions:/System/Library/Java/Extensions:/usr/lib/java:."/>
    <property name="java.specification.name" value="Java Platform API Specification"/>
    <property name="java.class.version" value="51.0"/>
    <property name="sun.management.compiler" value="HotSpot 64-Bit Tiered Compilers"/>
    <property name="os.version" value="10.10.4"/>
    <property name="http.nonProxyHosts" value="local|*.local|169.254/16|*.169.254/16"/>
    <property name="user.home" value="/Users/Hazem"/>
    <property name="user.timezone" value="Europe/Berlin"/>
    <property name="java.awt.printerjob" value="sun.lwawt.macosx.CPrinterJob"/>
    <property name="java.specification.version" value="1.7"/>
    <property name="file.encoding" value="UTF-8"/>
    <property name="user.name" value="Hazem"/>
    <property name="java.class.path" value="/Applications/NetBeans/NetBeans 8.0.2.app/Contents/Resources/NetBeans/java/maven/boot/plexus-classworlds-2.4.jar"/>
    <property name="java.vm.specification.version" value="1.7"/>
    <property name="sun.arch.data.model" value="64"/>
    <property name="java.home" value="/Library/Java/JavaVirtualMachines/jdk1.7.0_79.jdk/Contents/Home/jre"/>
    <property name="sun.java.command" value="org.codehaus.plexus.classworlds.launcher.Launcher -Dmaven.ext.class.path=/Applications/NetBeans/NetBeans 8.0.2.app/Contents/Resources/NetBeans/java/maven-nblib/netbeans-eventspy.jar install"/>
    <property name="java.specification.vendor" value="Oracle Corporation"/>
    <property name="user.language" value="en"/>
    <property name="awt.toolkit" value="sun.lwawt.macosx.LWCToolkit"/>
    <property name="java.vm.info" value="mixed mode"/>
    <property name="java.version" value="1.7.0_79"/>
    <property name="java.ext.dirs" value="/Users/Hazem/Library/Java/Extensions:/Library/Java/JavaVirtualMachines/jdk1.7.0_79.jdk/Contents/Home/jre/lib/ext:/Library/Java/Extensions:/Network/Library/Java/Extensions:/System/Library/Java/Extensions:/usr/lib/java"/>
    <property name="sun.boot.class.path" value="/Library/Java/JavaVirtualMachines/jdk1.7.0_79.jdk/Contents/Home/jre/lib/resources.jar:/Library/Java/JavaVirtualMachines/jdk1.7.0_79.jdk/Contents/Home/jre/lib/rt.jar:/Library/Java/JavaVirtualMachines/jdk1.7.0_79.jdk/Contents/Home/jre/lib/sunrsasign.jar:/Library/Java/JavaVirtualMachines/jdk1.7.0_79.jdk/Contents/Home/jre/lib/jsse.jar:/Library/Java/JavaVirtualMachines/jdk1.7.0_79.jdk/Contents/Home/jre/lib/jce.jar:/Library/Java/JavaVirtualMachines/jdk1.7.0_79.jdk/Contents/Home/jre/lib/charsets.jar:/Library/Java/JavaVirtualMachines/jdk1.7.0_79.jdk/Contents/Home/jre/lib/jfr.jar:/Library/Java/JavaVirtualMachines/jdk1.7.0_79.jdk/Contents/Home/jre/classes"/>
    <property name="java.vendor" value="Oracle Corporation"/>
    <property name="maven.home" value="/Applications/NetBeans/NetBeans 8.0.2.app/Contents/Resources/NetBeans/java/maven"/>
    <property name="file.separator" value="/"/>
    <property name="java.vendor.url.bug" value="http://bugreport.sun.com/bugreport/"/>
    <property name="sun.cpu.endian" value="little"/>
    <property name="sun.io.unicode.encoding" value="UnicodeBig"/>
    <property name="socksNonProxyHosts" value="local|*.local|169.254/16|*.169.254/16"/>
    <property name="ftp.nonProxyHosts" value="local|*.local|169.254/16|*.169.254/16"/>
    <property name="sun.cpu.isalist" value=""/>
  </properties>
  <testcase name="testCalcFastestPath[NODE_BASED]" classname="com.graphhopper.routing.AStarTest" time="0.026"/>
  <testcase name="testBidirectional[NODE_BASED]" classname="com.graphhopper.routing.AStarTest" time="0.008"/>
  <testcase name="testWikipediaShortestPath[NODE_BASED]" classname="com.graphhopper.routing.AStarTest" time="0.005"/>
  <testcase name="testDirectedGraphBug1[NODE_BASED]" classname="com.graphhopper.routing.AStarTest" time="0.005"/>
  <testcase name="testDirectedGraphBug2[NODE_BASED]" classname="com.graphhopper.routing.AStarTest" time="0.006"/>
  <testcase name="testBug1[NODE_BASED]" classname="com.graphhopper.routing.AStarTest" time="0.003"/>
  <testcase name="testViaEdges_WithCoordinates[NODE_BASED]" classname="com.graphhopper.routing.AStarTest" time="0.008"/>
  <testcase name="testCannotCalculateSP[NODE_BASED]" classname="com.graphhopper.routing.AStarTest" time="0.006"/>
  <testcase name="testWeightLimit_issue380[NODE_BASED]" classname="com.graphhopper.routing.AStarTest" time="0.007"/>
  <testcase name="testViaEdges_FromEqualsTo[NODE_BASED]" classname="com.graphhopper.routing.AStarTest" time="0.015"/>
  <testcase name="testTwoWeightsPerEdge[NODE_BASED]" classname="com.graphhopper.routing.AStarTest" time="0.01"/>
  <testcase name="test0SpeedButUnblocked_Issue242[NODE_BASED]" classname="com.graphhopper.routing.AStarTest" time="0.006"/>
  <testcase name="testNoPathFound[NODE_BASED]" classname="com.graphhopper.routing.AStarTest" time="0.015"/>
  <testcase name="testCalcFootPath[NODE_BASED]" classname="com.graphhopper.routing.AStarTest" time="0.002"/>
  <testcase name="testQueryGraphAndFastest[NODE_BASED]" classname="com.graphhopper.routing.AStarTest" time="0.009"/>
  <testcase name="testViaEdges_SpecialCases[NODE_BASED]" classname="com.graphhopper.routing.AStarTest" time="0.006"/>
  <testcase name="testBidirectional2[NODE_BASED]" classname="com.graphhopper.routing.AStarTest" time="0.007"/>
  <testcase name="testCalcShortestPath[NODE_BASED]" classname="com.graphhopper.routing.AStarTest" time="0.001"/>
  <testcase name="testViaEdges_BiGraph[NODE_BASED]" classname="com.graphhopper.routing.AStarTest" time="0.007"/>
  <testcase name="testCalcIfEmptyWay[NODE_BASED]" classname="com.graphhopper.routing.AStarTest" time="0.008"/>
  <testcase name="testWeightLimit[NODE_BASED]" classname="com.graphhopper.routing.AStarTest" time="0.007"/>
  <testcase name="testCorrectWeight[NODE_BASED]" classname="com.graphhopper.routing.AStarTest" time="0.001"/>
  <testcase name="testWithCoordinates[NODE_BASED]" classname="com.graphhopper.routing.AStarTest" time="0.001"/>
  <testcase name="testRekeyBugOfIntBinHeap[NODE_BASED]" classname="com.graphhopper.routing.AStarTest" time="0.008"/>
  <testcase name="testCalcIf1EdgeAway[NODE_BASED]" classname="com.graphhopper.routing.AStarTest" time="0.005"/>
  <testcase name="testTwoWeightsPerEdge2[NODE_BASED]" classname="com.graphhopper.routing.AStarTest" time="0.015"/>
  <testcase name="testCalcFastestPath[EDGE_BASED_1DIR]" classname="com.graphhopper.routing.AStarTest" time="0.009"/>
  <testcase name="testBidirectional[EDGE_BASED_1DIR]" classname="com.graphhopper.routing.AStarTest" time="0.007"/>
  <testcase name="testWikipediaShortestPath[EDGE_BASED_1DIR]" classname="com.graphhopper.routing.AStarTest" time="0.002"/>
  <testcase name="testDirectedGraphBug1[EDGE_BASED_1DIR]" classname="com.graphhopper.routing.AStarTest" time="0.002"/>
  <testcase name="testDirectedGraphBug2[EDGE_BASED_1DIR]" classname="com.graphhopper.routing.AStarTest" time="0.006"/>
  <testcase name="testBug1[EDGE_BASED_1DIR]" classname="com.graphhopper.routing.AStarTest" time="0"/>
  <testcase name="testViaEdges_WithCoordinates[EDGE_BASED_1DIR]" classname="com.graphhopper.routing.AStarTest" time="0.009"/>
  <testcase name="testCannotCalculateSP[EDGE_BASED_1DIR]" classname="com.graphhopper.routing.AStarTest" time="0.013"/>
  <testcase name="testWeightLimit_issue380[EDGE_BASED_1DIR]" classname="com.graphhopper.routing.AStarTest" time="0.005"/>
  <testcase name="testViaEdges_FromEqualsTo[EDGE_BASED_1DIR]" classname="com.graphhopper.routing.AStarTest" time="0.018"/>
  <testcase name="testTwoWeightsPerEdge[EDGE_BASED_1DIR]" classname="com.graphhopper.routing.AStarTest" time="0.006"/>
  <testcase name="test0SpeedButUnblocked_Issue242[EDGE_BASED_1DIR]" classname="com.graphhopper.routing.AStarTest" time="0.005"/>
  <testcase name="testNoPathFound[EDGE_BASED_1DIR]" classname="com.graphhopper.routing.AStarTest" time="0.014"/>
  <testcase name="testCalcFootPath[EDGE_BASED_1DIR]" classname="com.graphhopper.routing.AStarTest" time="0.003"/>
  <testcase name="testQueryGraphAndFastest[EDGE_BASED_1DIR]" classname="com.graphhopper.routing.AStarTest" time="0.004"/>
  <testcase name="testViaEdges_SpecialCases[EDGE_BASED_1DIR]" classname="com.graphhopper.routing.AStarTest" time="0.026"/>
  <testcase name="testBidirectional2[EDGE_BASED_1DIR]" classname="com.graphhopper.routing.AStarTest" time="0.008"/>
  <testcase name="testCalcShortestPath[EDGE_BASED_1DIR]" classname="com.graphhopper.routing.AStarTest" time="0.003"/>
  <testcase name="testViaEdges_BiGraph[EDGE_BASED_1DIR]" classname="com.graphhopper.routing.AStarTest" time="0.013"/>
  <testcase name="testCalcIfEmptyWay[EDGE_BASED_1DIR]" classname="com.graphhopper.routing.AStarTest" time="0.011"/>
  <testcase name="testWeightLimit[EDGE_BASED_1DIR]" classname="com.graphhopper.routing.AStarTest" time="0.016"/>
  <testcase name="testCorrectWeight[EDGE_BASED_1DIR]" classname="com.graphhopper.routing.AStarTest" time="0.006"/>
  <testcase name="testWithCoordinates[EDGE_BASED_1DIR]" classname="com.graphhopper.routing.AStarTest" time="0.005"/>
  <testcase name="testRekeyBugOfIntBinHeap[EDGE_BASED_1DIR]" classname="com.graphhopper.routing.AStarTest" time="0.006"/>
  <testcase name="testCalcIf1EdgeAway[EDGE_BASED_1DIR]" classname="com.graphhopper.routing.AStarTest" time="0.003"/>
  <testcase name="testTwoWeightsPerEdge2[EDGE_BASED_1DIR]" classname="com.graphhopper.routing.AStarTest" time="0.017"/>
  <testcase name="testCalcFastestPath[EDGE_BASED_2DIR]" classname="com.graphhopper.routing.AStarTest" time="0.017"/>
  <testcase name="testBidirectional[EDGE_BASED_2DIR]" classname="com.graphhopper.routing.AStarTest" time="0.007"/>
  <testcase name="testWikipediaShortestPath[EDGE_BASED_2DIR]" classname="com.graphhopper.routing.AStarTest" time="0.006"/>
  <testcase name="testDirectedGraphBug1[EDGE_BASED_2DIR]" classname="com.graphhopper.routing.AStarTest" time="0.004"/>
  <testcase name="testDirectedGraphBug2[EDGE_BASED_2DIR]" classname="com.graphhopper.routing.AStarTest" time="0.006"/>
  <testcase name="testBug1[EDGE_BASED_2DIR]" classname="com.graphhopper.routing.AStarTest" time="0.001"/>
  <testcase name="testViaEdges_WithCoordinates[EDGE_BASED_2DIR]" classname="com.graphhopper.routing.AStarTest" time="0.01"/>
  <testcase name="testCannotCalculateSP[EDGE_BASED_2DIR]" classname="com.graphhopper.routing.AStarTest" time="0.009"/>
  <testcase name="testWeightLimit_issue380[EDGE_BASED_2DIR]" classname="com.graphhopper.routing.AStarTest" time="0.004"/>
  <testcase name="testViaEdges_FromEqualsTo[EDGE_BASED_2DIR]" classname="com.graphhopper.routing.AStarTest" time="0.013"/>
  <testcase name="testTwoWeightsPerEdge[EDGE_BASED_2DIR]" classname="com.graphhopper.routing.AStarTest" time="0.009"/>
  <testcase name="test0SpeedButUnblocked_Issue242[EDGE_BASED_2DIR]" classname="com.graphhopper.routing.AStarTest" time="0.009"/>
  <testcase name="testNoPathFound[EDGE_BASED_2DIR]" classname="com.graphhopper.routing.AStarTest" time="0.009"/>
  <testcase name="testCalcFootPath[EDGE_BASED_2DIR]" classname="com.graphhopper.routing.AStarTest" time="0.005"/>
  <testcase name="testQueryGraphAndFastest[EDGE_BASED_2DIR]" classname="com.graphhopper.routing.AStarTest" time="0.007"/>
  <testcase name="testViaEdges_SpecialCases[EDGE_BASED_2DIR]" classname="com.graphhopper.routing.AStarTest" time="0.016"/>
  <testcase name="testBidirectional2[EDGE_BASED_2DIR]" classname="com.graphhopper.routing.AStarTest" time="0.007"/>
  <testcase name="testCalcShortestPath[EDGE_BASED_2DIR]" classname="com.graphhopper.routing.AStarTest" time="0.005"/>
  <testcase name="testViaEdges_BiGraph[EDGE_BASED_2DIR]" classname="com.graphhopper.routing.AStarTest" time="0.011"/>
  <testcase name="testCalcIfEmptyWay[EDGE_BASED_2DIR]" classname="com.graphhopper.routing.AStarTest" time="0.008"/>
  <testcase name="testWeightLimit[EDGE_BASED_2DIR]" classname="com.graphhopper.routing.AStarTest" time="0.007"/>
  <testcase name="testCorrectWeight[EDGE_BASED_2DIR]" classname="com.graphhopper.routing.AStarTest" time="0.003"/>
  <testcase name="testWithCoordinates[EDGE_BASED_2DIR]" classname="com.graphhopper.routing.AStarTest" time="0.008"/>
  <testcase name="testRekeyBugOfIntBinHeap[EDGE_BASED_2DIR]" classname="com.graphhopper.routing.AStarTest" time="0.007"/>
  <testcase name="testCalcIf1EdgeAway[EDGE_BASED_2DIR]" classname="com.graphhopper.routing.AStarTest" time="0.006"/>
  <testcase name="testTwoWeightsPerEdge2[EDGE_BASED_2DIR]" classname="com.graphhopper.routing.AStarTest" time="0.01"/>
  <testcase name="testCalcFastestPath[EDGE_BASED_2DIR_UTURN]" classname="com.graphhopper.routing.AStarTest" time="0.013"/>
  <testcase name="testBidirectional[EDGE_BASED_2DIR_UTURN]" classname="com.graphhopper.routing.AStarTest" time="0.007"/>
  <testcase name="testWikipediaShortestPath[EDGE_BASED_2DIR_UTURN]" classname="com.graphhopper.routing.AStarTest" time="0.009"/>
  <testcase name="testDirectedGraphBug1[EDGE_BASED_2DIR_UTURN]" classname="com.graphhopper.routing.AStarTest" time="0.005"/>
  <testcase name="testDirectedGraphBug2[EDGE_BASED_2DIR_UTURN]" classname="com.graphhopper.routing.AStarTest" time="0.005"/>
  <testcase name="testBug1[EDGE_BASED_2DIR_UTURN]" classname="com.graphhopper.routing.AStarTest" time="0"/>
  <testcase name="testViaEdges_WithCoordinates[EDGE_BASED_2DIR_UTURN]" classname="com.graphhopper.routing.AStarTest" time="0.006"/>
  <testcase name="testCannotCalculateSP[EDGE_BASED_2DIR_UTURN]" classname="com.graphhopper.routing.AStarTest" time="0.004"/>
  <testcase name="testWeightLimit_issue380[EDGE_BASED_2DIR_UTURN]" classname="com.graphhopper.routing.AStarTest" time="0.004"/>
  <testcase name="testViaEdges_FromEqualsTo[EDGE_BASED_2DIR_UTURN]" classname="com.graphhopper.routing.AStarTest" time="0.012"/>
  <testcase name="testTwoWeightsPerEdge[EDGE_BASED_2DIR_UTURN]" classname="com.graphhopper.routing.AStarTest" time="0.006"/>
  <testcase name="test0SpeedButUnblocked_Issue242[EDGE_BASED_2DIR_UTURN]" classname="com.graphhopper.routing.AStarTest" time="0.013"/>
  <testcase name="testNoPathFound[EDGE_BASED_2DIR_UTURN]" classname="com.graphhopper.routing.AStarTest" time="0.009"/>
  <testcase name="testCalcFootPath[EDGE_BASED_2DIR_UTURN]" classname="com.graphhopper.routing.AStarTest" time="0.006"/>
  <testcase name="testQueryGraphAndFastest[EDGE_BASED_2DIR_UTURN]" classname="com.graphhopper.routing.AStarTest" time="0.011"/>
  <testcase name="testViaEdges_SpecialCases[EDGE_BASED_2DIR_UTURN]" classname="com.graphhopper.routing.AStarTest" time="0.022"/>
  <testcase name="testBidirectional2[EDGE_BASED_2DIR_UTURN]" classname="com.graphhopper.routing.AStarTest" time="0.006"/>
  <testcase name="testCalcShortestPath[EDGE_BASED_2DIR_UTURN]" classname="com.graphhopper.routing.AStarTest" time="0.006"/>
  <testcase name="testViaEdges_BiGraph[EDGE_BASED_2DIR_UTURN]" classname="com.graphhopper.routing.AStarTest" time="0.013"/>
  <testcase name="testCalcIfEmptyWay[EDGE_BASED_2DIR_UTURN]" classname="com.graphhopper.routing.AStarTest" time="0.008"/>
  <testcase name="testWeightLimit[EDGE_BASED_2DIR_UTURN]" classname="com.graphhopper.routing.AStarTest" time="0.011"/>
  <testcase name="testCorrectWeight[EDGE_BASED_2DIR_UTURN]" classname="com.graphhopper.routing.AStarTest" time="0.007"/>
  <testcase name="testWithCoordinates[EDGE_BASED_2DIR_UTURN]" classname="com.graphhopper.routing.AStarTest" time="0.007"/>
  <testcase name="testRekeyBugOfIntBinHeap[EDGE_BASED_2DIR_UTURN]" classname="com.graphhopper.routing.AStarTest" time="0.003"/>
  <testcase name="testCalcIf1EdgeAway[EDGE_BASED_2DIR_UTURN]" classname="com.graphhopper.routing.AStarTest" time="0.005"/>
  <testcase name="testTwoWeightsPerEdge2[EDGE_BASED_2DIR_UTURN]" classname="com.graphhopper.routing.AStarTest" time="0.017"/>
</testsuite>