-------------------------------------------------------------------------------
Test set: com.graphhopper.tools.QueryTortureTest
-------------------------------------------------------------------------------
Tests run: 1, Failures: 0, Errors: 0, Skipped: 0, Time elapsed: 0.025 sec - in com.graphhopper.tools.QueryTortureTest
